EESchema Schematic File Version 4
EELAYER 30 0
EELAYER END
$Descr A4 11693 8268
encoding utf-8
Sheet 1 1
Title ""
Date ""
Rev ""
Comp ""
Comment1 ""
Comment2 ""
Comment3 ""
Comment4 ""
$EndDescr
$Comp
L power:GND #PWR0101
U 1 1 5C07953E
P 4200 3450
F 0 "#PWR0101" H 4200 3200 50  0001 C CNN
F 1 "GND" H 4205 3277 50  0000 C CNN
F 2 "" H 4200 3450 50  0001 C CNN
F 3 "" H 4200 3450 50  0001 C CNN
	1    4200 3450
	1    0    0    -1  
$EndComp
Wire Wire Line
	4200 3450 4200 3350
Wire Wire Line
	4200 900  4200 1800
Wire Wire Line
	4300 1950 4300 1800
Wire Wire Line
	4300 1800 4200 1800
Connection ~ 4200 1800
Wire Wire Line
	4200 1800 4200 1950
Connection ~ 4200 900 
Wire Wire Line
	3500 3350 3500 3150
Wire Wire Line
	3500 3150 3700 3150
$Comp
L power:GND #PWR0105
U 1 1 5C07B54C
P 3500 3550
F 0 "#PWR0105" H 3500 3300 50  0001 C CNN
F 1 "GND" H 3505 3377 50  0000 C CNN
F 2 "" H 3500 3550 50  0001 C CNN
F 3 "" H 3500 3550 50  0001 C CNN
	1    3500 3550
	1    0    0    -1  
$EndComp
$Comp
L Device:R R4
U 1 1 5C07B68F
P 2850 3400
F 0 "R4" H 2920 3446 50  0000 L CNN
F 1 "10k" H 2920 3355 50  0000 L CNN
F 2 "Resistor_SMD:R_1206_3216Metric_Pad1.42x1.75mm_HandSolder" V 2780 3400 50  0001 C CNN
F 3 "~" H 2850 3400 50  0001 C CNN
	1    2850 3400
	1    0    0    -1  
$EndComp
$Comp
L Device:C_Small C5
U 1 1 5C07B759
P 3200 3450
F 0 "C5" H 3292 3496 50  0000 L CNN
F 1 "1n" H 3292 3405 50  0000 L CNN
F 2 "Capacitor_SMD:C_1206_3216Metric_Pad1.42x1.75mm_HandSolder" H 3200 3450 50  0001 C CNN
F 3 "~" H 3200 3450 50  0001 C CNN
	1    3200 3450
	1    0    0    -1  
$EndComp
Wire Wire Line
	3700 3050 3650 3050
Wire Wire Line
	3200 2950 3200 3050
$Comp
L power:GND #PWR0106
U 1 1 5C07C943
P 3200 3550
F 0 "#PWR0106" H 3200 3300 50  0001 C CNN
F 1 "GND" H 3205 3377 50  0000 C CNN
F 2 "" H 3200 3550 50  0001 C CNN
F 3 "" H 3200 3550 50  0001 C CNN
	1    3200 3550
	1    0    0    -1  
$EndComp
$Comp
L power:GND #PWR0107
U 1 1 5C07C95C
P 2850 3550
F 0 "#PWR0107" H 2850 3300 50  0001 C CNN
F 1 "GND" H 2855 3377 50  0000 C CNN
F 2 "" H 2850 3550 50  0001 C CNN
F 3 "" H 2850 3550 50  0001 C CNN
	1    2850 3550
	1    0    0    -1  
$EndComp
Wire Wire Line
	2850 3250 2850 2850
Wire Wire Line
	2850 2850 3700 2850
Wire Wire Line
	2600 2550 3700 2550
Text Label 7150 2200 0    50   ~ 0
REF
Wire Wire Line
	3700 2250 1900 2250
Wire Wire Line
	1900 2250 1900 4400
Text Label 7350 2800 0    50   ~ 0
IN-
$Comp
L Device:C_Small C3
U 1 1 5C087A89
P 1600 2800
F 0 "C3" H 1692 2846 50  0000 L CNN
F 1 "1u" H 1692 2755 50  0000 L CNN
F 2 "Capacitor_SMD:C_1206_3216Metric_Pad1.42x1.75mm_HandSolder" H 1600 2800 50  0001 C CNN
F 3 "~" H 1600 2800 50  0001 C CNN
	1    1600 2800
	1    0    0    -1  
$EndComp
$Comp
L power:GND #PWR0110
U 1 1 5C087B19
P 1600 2900
F 0 "#PWR0110" H 1600 2650 50  0001 C CNN
F 1 "GND" H 1605 2727 50  0000 C CNN
F 2 "" H 1600 2900 50  0001 C CNN
F 3 "" H 1600 2900 50  0001 C CNN
	1    1600 2900
	1    0    0    -1  
$EndComp
Wire Wire Line
	1600 2700 1600 2450
$Comp
L Device:C_Small C1
U 1 1 5C088C73
P 1250 2800
F 0 "C1" H 1342 2846 50  0000 L CNN
F 1 "10n" H 1342 2755 50  0000 L CNN
F 2 "Capacitor_SMD:C_1206_3216Metric_Pad1.42x1.75mm_HandSolder" H 1250 2800 50  0001 C CNN
F 3 "~" H 1250 2800 50  0001 C CNN
	1    1250 2800
	1    0    0    -1  
$EndComp
$Comp
L power:GND #PWR0111
U 1 1 5C088CA3
P 1250 2900
F 0 "#PWR0111" H 1250 2650 50  0001 C CNN
F 1 "GND" H 1255 2727 50  0000 C CNN
F 2 "" H 1250 2900 50  0001 C CNN
F 3 "" H 1250 2900 50  0001 C CNN
	1    1250 2900
	1    0    0    -1  
$EndComp
Wire Wire Line
	1250 2700 1250 2350
Wire Wire Line
	1250 2350 3700 2350
$Comp
L Device:R R1
U 1 1 5C08A3CE
P 1550 2250
F 0 "R1" V 1343 2250 50  0000 C CNN
F 1 "470k" V 1434 2250 50  0000 C CNN
F 2 "Resistor_SMD:R_1206_3216Metric_Pad1.42x1.75mm_HandSolder" V 1480 2250 50  0001 C CNN
F 3 "~" H 1550 2250 50  0001 C CNN
	1    1550 2250
	0    1    1    0   
$EndComp
Wire Wire Line
	1400 2250 1250 2250
Wire Wire Line
	1250 2250 1250 2350
Connection ~ 1250 2350
Wire Wire Line
	1700 2250 1900 2250
Connection ~ 1900 2250
$Comp
L Device:C_Small C2
U 1 1 5C08C9A2
P 1550 1900
F 0 "C2" V 1321 1900 50  0000 C CNN
F 1 "68n" V 1412 1900 50  0000 C CNN
F 2 "Capacitor_SMD:C_1206_3216Metric_Pad1.42x1.75mm_HandSolder" H 1550 1900 50  0001 C CNN
F 3 "~" H 1550 1900 50  0001 C CNN
	1    1550 1900
	0    1    1    0   
$EndComp
Wire Wire Line
	1650 1900 1900 1900
Wire Wire Line
	1900 1900 1900 2250
Wire Wire Line
	1450 1900 1250 1900
Wire Wire Line
	1250 1900 1250 2250
Connection ~ 1250 2250
$Comp
L Device:C_Small C4
U 1 1 5C09FD8E
P 3550 1250
F 0 "C4" H 3642 1296 50  0000 L CNN
F 1 "1u" H 3642 1205 50  0000 L CNN
F 2 "Capacitor_SMD:C_1206_3216Metric_Pad1.42x1.75mm_HandSolder" H 3550 1250 50  0001 C CNN
F 3 "~" H 3550 1250 50  0001 C CNN
	1    3550 1250
	1    0    0    -1  
$EndComp
$Comp
L power:GND #PWR0115
U 1 1 5C09FE2F
P 3550 1350
F 0 "#PWR0115" H 3550 1100 50  0001 C CNN
F 1 "GND" H 3555 1177 50  0000 C CNN
F 2 "" H 3550 1350 50  0001 C CNN
F 3 "" H 3550 1350 50  0001 C CNN
	1    3550 1350
	1    0    0    -1  
$EndComp
Wire Wire Line
	3550 1150 3550 900 
$Comp
L power:GND #PWR0116
U 1 1 5C0ADDE1
P 6550 3250
F 0 "#PWR0116" H 6550 3000 50  0001 C CNN
F 1 "GND" H 6555 3077 50  0000 C CNN
F 2 "" H 6550 3250 50  0001 C CNN
F 3 "" H 6550 3250 50  0001 C CNN
	1    6550 3250
	1    0    0    -1  
$EndComp
Wire Wire Line
	2600 3950 6700 3950
Wire Wire Line
	6700 3950 6700 3050
Wire Wire Line
	6700 3050 6850 3050
Wire Wire Line
	2600 2550 2600 3950
$Comp
L Device:R R6
U 1 1 5D45E2A8
P 6850 3300
F 0 "R6" H 6920 3346 50  0000 L CNN
F 1 "10k" H 6920 3255 50  0000 L CNN
F 2 "Resistor_SMD:R_1206_3216Metric_Pad1.42x1.75mm_HandSolder" V 6780 3300 50  0001 C CNN
F 3 "~" H 6850 3300 50  0001 C CNN
	1    6850 3300
	1    0    0    -1  
$EndComp
Wire Wire Line
	6850 3150 6850 3050
$Comp
L power:GND #PWR0114
U 1 1 5D460A9B
P 6850 3450
F 0 "#PWR0114" H 6850 3200 50  0001 C CNN
F 1 "GND" H 6855 3277 50  0000 C CNN
F 2 "" H 6850 3450 50  0001 C CNN
F 3 "" H 6850 3450 50  0001 C CNN
	1    6850 3450
	1    0    0    -1  
$EndComp
Text Label 7350 2700 0    50   ~ 0
SD
Wire Wire Line
	4700 2750 6900 2750
Wire Wire Line
	6850 3050 7300 3050
Connection ~ 6850 3050
Text Label 7200 2600 0    50   ~ 0
OUT_A
Text Label 7200 2400 0    50   ~ 0
OUT_B
Wire Wire Line
	7400 2300 7500 2300
Wire Wire Line
	7400 900  7400 2300
Wire Wire Line
	7100 2200 7500 2200
Wire Wire Line
	7100 2200 7100 4200
Wire Wire Line
	7500 2400 6900 2400
Wire Wire Line
	6900 2400 6900 2750
Wire Wire Line
	7300 2700 7300 3050
Text Label 7400 1750 0    50   ~ 0
VCC
Wire Wire Line
	4200 900  7400 900 
Wire Wire Line
	3550 900  4200 900 
Wire Wire Line
	7300 2700 7500 2700
Wire Wire Line
	7500 2500 6550 2500
Wire Wire Line
	7500 2600 5050 2600
Wire Wire Line
	5050 2600 5050 2550
Wire Wire Line
	5050 2550 4700 2550
$Comp
L Connector:Conn_01x07_Male J1
U 1 1 5EA24F38
P 7700 2500
F 0 "J1" H 7672 2474 50  0000 R CNN
F 1 "HEADER" H 7672 2383 50  0000 R CNN
F 2 "Connector_PinHeader_2.54mm:PinHeader_1x07_P2.54mm_Vertical" H 7700 2500 50  0001 C CNN
F 3 "~" H 7700 2500 50  0001 C CNN
	1    7700 2500
	-1   0    0    -1  
$EndComp
Wire Wire Line
	1600 2450 2000 2450
Wire Wire Line
	2000 4200 2000 2450
Wire Wire Line
	2000 4200 7100 4200
Connection ~ 2000 2450
$Comp
L Device:R R2
U 1 1 5EB14ABA
P 3500 3050
F 0 "R2" V 3600 2950 50  0000 L CNN
F 1 "22" V 3500 3000 50  0000 L CNN
F 2 "Resistor_SMD:R_1206_3216Metric_Pad1.42x1.75mm_HandSolder" V 3430 3050 50  0001 C CNN
F 3 "~" H 3500 3050 50  0001 C CNN
	1    3500 3050
	0    1    1    0   
$EndComp
Wire Wire Line
	3200 2950 3700 2950
Wire Wire Line
	3350 3050 3200 3050
Connection ~ 3200 3050
Wire Wire Line
	3200 3050 3200 3350
Wire Wire Line
	1900 4400 7200 4400
Wire Wire Line
	2100 2150 3700 2150
Wire Wire Line
	2150 2800 2100 2800
Wire Wire Line
	2100 2800 2100 2150
$Comp
L Device:R_POT RV1
U 1 1 5E9F8543
P 2300 2800
F 0 "RV1" H 2230 2846 50  0000 R CNN
F 1 "10k" H 2230 2755 50  0000 R CNN
F 2 "Potentiometer_SMD:Potentiometer_Bourns_3314J_Vertical" H 2300 2800 50  0001 C CNN
F 3 "~" H 2300 2800 50  0001 C CNN
	1    2300 2800
	-1   0    0    -1  
$EndComp
Wire Wire Line
	2000 2450 2300 2450
Wire Wire Line
	2300 2450 3700 2450
Connection ~ 2300 2450
Wire Wire Line
	2300 2650 2300 2450
$Comp
L power:GND #PWR0108
U 1 1 5C07D552
P 2300 2950
F 0 "#PWR0108" H 2300 2700 50  0001 C CNN
F 1 "GND" H 2305 2777 50  0000 C CNN
F 2 "" H 2300 2950 50  0001 C CNN
F 3 "" H 2300 2950 50  0001 C CNN
	1    2300 2950
	1    0    0    -1  
$EndComp
$Comp
L Regulator_Controller:SG3525 U1
U 1 1 5C0792F4
P 4200 2650
F 0 "U1" H 4350 1950 50  0000 C CNN
F 1 "SG3525" H 4400 1850 50  0000 C CNN
F 2 "Package_SO:SOIC-16_3.9x9.9mm_P1.27mm" H 4200 2650 50  0001 C CNN
F 3 "www.st.com/resource/en/datasheet/sg3525.pdf" H 4200 2650 50  0001 C CNN
	1    4200 2650
	1    0    0    -1  
$EndComp
Wire Wire Line
	6550 2500 6550 3250
Wire Wire Line
	7200 2800 7500 2800
Wire Wire Line
	7200 2800 7200 4400
$Comp
L Device:C_Small C7
U 1 1 5EB17D88
P 3150 1250
F 0 "C7" H 3242 1296 50  0000 L CNN
F 1 "100n" H 3242 1205 50  0000 L CNN
F 2 "Capacitor_SMD:C_1206_3216Metric_Pad1.42x1.75mm_HandSolder" H 3150 1250 50  0001 C CNN
F 3 "~" H 3150 1250 50  0001 C CNN
	1    3150 1250
	1    0    0    -1  
$EndComp
Wire Wire Line
	3150 1150 3150 900 
Wire Wire Line
	3150 900  3550 900 
Connection ~ 3550 900 
$Comp
L power:GND #PWR0102
U 1 1 5EB196FA
P 3150 1350
F 0 "#PWR0102" H 3150 1100 50  0001 C CNN
F 1 "GND" H 3155 1177 50  0000 C CNN
F 2 "" H 3150 1350 50  0001 C CNN
F 3 "" H 3150 1350 50  0001 C CNN
	1    3150 1350
	1    0    0    -1  
$EndComp
$Comp
L Device:C_Small C6
U 1 1 5EB1A446
P 3500 3450
F 0 "C6" H 3592 3496 50  0000 L CNN
F 1 "33u" H 3592 3405 50  0000 L CNN
F 2 "Capacitor_SMD:C_1206_3216Metric_Pad1.42x1.75mm_HandSolder" H 3500 3450 50  0001 C CNN
F 3 "~" H 3500 3450 50  0001 C CNN
	1    3500 3450
	1    0    0    -1  
$EndComp
$EndSCHEMATC
